…
資料介紹與來源
--------------

-資料來源 ： 政府資料開放平台 -資料名稱 ： 地區年齡性別統計表-HIV感染(含母子垂直感染疑似個案)(2003/1-2017/5) -資料集描述 : 2003-2017起各地區、各年齡層、性別之病例數統計表 (疾病名稱：HIV感染，日期種類：診斷日，病例種類：確定病例，感染來源：本國籍、非本國籍)。 -主要欄位說明 : 「確定病名」、「診斷年份」、「診斷月份」、「縣市」、「性別」、「國籍」、「年齡層」、「確定病例數」。

載入使用資料們
--------------

``` r
library(readxl)
aa<- read_excel("~/Desktop/Age_County_Gender_044.xlsx")
aa
```

    ## # A tibble: 13,275 × 8
    ##      確定病名 診斷年份 診斷月份   縣市  性別     國籍 年齡層 確定病例數
    ##         <chr>    <dbl>    <dbl>  <chr> <chr>    <chr>  <chr>      <dbl>
    ## 1  ＨＩＶ感染     2003        1 新北市     M 非本國籍  20-24          1
    ## 2  ＨＩＶ感染     2003        3 新北市     M   本國籍  20-24          3
    ## 3  ＨＩＶ感染     2003        5 桃園市     M   本國籍  20-24          1
    ## 4  ＨＩＶ感染     2003        6 台北市     M   本國籍  40-44          2
    ## 5  ＨＩＶ感染     2003        6 宜蘭縣     M   本國籍  20-24          2
    ## 6  ＨＩＶ感染     2003        6 新北市     M   本國籍  30-34          2
    ## 7  ＨＩＶ感染     2003        8 基隆市     M   本國籍  20-24          1
    ## 8  ＨＩＶ感染     2003        9 台北市     M 非本國籍  50-54          1
    ## 9  ＨＩＶ感染     2003        9 基隆市     M   本國籍  45-49          1
    ## 10 ＨＩＶ感染     2004        1 新北市     F   本國籍  30-34          1
    ## # ... with 13,265 more rows
…
``` r
ac<-data.table(aa)
bc<-group_by(ac,縣市)%>%  
    summarise(總確定病例數=n())
bac<-arrange(bc,                
        desc(總確定病例數))
bac
```

    ## # A tibble: 22 × 2
    ##      縣市 總確定病例數
    ##     <chr>        <int>
    ## 1  新北市         1692
    ## 2  台北市         1448
    ## 3  高雄市         1422
    ## 4  台中市         1330
    ## 5  桃園市         1308
    ## 6  台南市          966
    ## 7  彰化縣          740
    ## 8  屏東縣          690
    ## 9  雲林縣          565
    ## 10 新竹市          457
    ## # ... with 12 more rows
…
``` r
ac<-data.table(aa)
bc<-group_by(ac,縣市)%>%  
    summarise(總確定病例數=n())
bac<-arrange(bc,                
        desc(總確定病例數))
bac
```

    ## # A tibble: 22 × 2
    ##      縣市 總確定病例數
    ##     <chr>        <int>
    ## 1  新北市         1692
    ## 2  台北市         1448
    ## 3  高雄市         1422
    ## 4  台中市         1330
    ## 5  桃園市         1308
    ## 6  台南市          966
    ## 7  彰化縣          740
    ## 8  屏東縣          690
    ## 9  雲林縣          565
    ## 10 新竹市          457
    ## # ... with 12 more rows
…
